Lab 2-1 - Predicting transit accessibility with census data – CUS - Spring 2025
…
Because this pre-processed census data doesn’t have any associated geography, we need to download and attach geographies using the tigris package.

block_groups <- block_groups(state = "25", year = 2021, class = "sf",progress=FALSE)
census <- census %>% 
    left_join(block_groups %>% select(GEOID, geometry), by = c("GEOID")) %>% 
    st_as_sf()
census

Simple feature collection with 1086 features and 24 fields
Geometry type: MULTIPOLYGON
Dimension:     XY
Bounding box:  xmin: -71.21578 ymin: 42.17279 xmax: -70.9201 ymax: 42.47898
Geodetic CRS:  NAD83
# A tibble: 1,086 × 25
   GEOID     age.total age.u18 age.u1825 age.u2564 age.a64 race.total race.white
   <chr>         <dbl>   <dbl>     <dbl>     <dbl>   <dbl>      <dbl>      <dbl>
 1 25009207…      1102     386        91       570      55       1102        382
 2 25009208…      1866     284       220      1074     288       1866       1223
 3 25009208…       391      27        47       238      79        391        353
 4 25009208…      1209     301        46       689     173       1209        998
 5 25009208…       942     217       128       474     123        942        795
 6 25009208…      1344     382        92       695     175       1344       1177
 7 25017336…      1898     508       213       911     266       1898       1885
 8 25017336…      1509     428       122       840     119       1509       1181
 9 25017336…       888     191       101       513      83        888        594
10 25017336…      2320     201        98      1490     531       2320       1589
# ℹ 1,076 more rows
# ℹ 17 more variables: race.black <dbl>, race.native <dbl>, race.asian <dbl>,
#   median_income <dbl>, ratio_poverty <dbl>, education.grade_0_9 <dbl>,
#   education.grade_9_12 <dbl>, education.some_college <dbl>,
#   education.bachelor <dbl>, employment.total <dbl>,
#   employment.labor_force <dbl>, employment.civilian_labor_force <dbl>,
#   employment.civilian_employed <dbl>, employment.civilian_unemployed <dbl>, …
…
t_stops <- t_stops %>% st_transform(26986)
census <- census %>% st_transform(26986)

Now we can compute the distance from each CBG to the nearest transit station.

distances <- st_distance(census, t_stops)
census$nearest_t_stop_dist <- apply(distances, 1, min)
census %>% select(GEOID, nearest_t_stop_dist)

Simple feature collection with 1086 features and 2 fields
Geometry type: MULTIPOLYGON
Dimension:     XY
Bounding box:  xmin: 223439 ymin: 880324.7 xmax: 247797.2 ymax: 914345.2
Projected CRS: NAD83 / Massachusetts Mainland
# A tibble: 1,086 × 3
   GEOID        nearest_t_stop_dist                                     geometry
   <chr>                      <dbl>                           <MULTIPOLYGON [m]>
 1 250092072001               6411. (((242868.3 911299, 242875.1 911306.7, 2428…
 2 250092081012               6055. (((239792.5 911639, 239812 911636.9, 239841…
 3 250092081021               4483. (((241361.6 909071.3, 241374.5 909094.1, 24…
 4 250092081022               5707. (((240046.3 910469.8, 240050.5 910477, 2400…
 5 250092081024               4505. (((240120.3 910027.7, 240123.6 910028.7, 24…
 6 250092082004               6251. (((238867.6 910801.2, 238873.5 910823.3, 23…
 7 250173363003               5923. (((236574.5 911371.9, 236634.7 911377.2, 23…
 8 250173363006               6466. (((236827 911854.3, 236978.5 911887.3, 2370…
 9 250173364031               5152. (((234339 910108.2, 234351.6 910215.9, 2343…
10 250173364032               5281. (((235200.4 910398.9, 235203.4 910435.1, 23…
# ℹ 1,076 more rows
…
